{
  "library": "spring-boot",
  "dateLibrary": "java8",
  "hideGenerationTimestamp": true,
  "modelPackage": "com.moataz.transaction_manager.api.v1.models",
  "apiPackage": "com.moataz.transaction_manager.api.v1",
  "invokerPackage": "com.moataz.transaction_manager.api.v1",
  "interfaceOnly": true,
  "java8": true,
  "delegatePattern": true,
  "modelNameSuffix": "Dto"
}